﻿1,1,6,,06-06-2023,04-06-2023,Y
2,1,7,,08-06-2023,06-06-2023,Y
3,1,8,,09-06-2023,10-06-2023,Y
4,1,9,,10-06-2023,,N
5,1,1,,10-06-2023,09-06-2023,Y
6,1,2,,11-06-2023,12-06-2023,Y
7,1,3,1,13-06-2023,,N
8,1,3,2,14-06-2023,,N
9,1,3,3,15-06-2023,,N
10,1,3,4,16-06-2023,,N
11,1,3,5,17-06-2023,,N
12,1,3,6,18-06-2023,,N
13,1,4,1,20-06-2023,,N
14,1,4,2,21-06-2023,,N
15,1,4,3,22-06-2023,,N
16,1,4,4,23-06-2023,,N
17,1,5,1,25-06-2023,,N
18,1,5,2,26-06-2023,,N
